0
SECTION
2
HEADER
9
$INSUNITS
70
4
9
$ACADVER
1
AC1014
9
$HANDSEED
5
FFFF
0
ENDSEC
0
SECTION
2
TABLES
0
TABLE
2
VPORT
5
8
100
AcDbSymbolTable
0
ENDTAB
0
TABLE
2
LTYPE
5
5
100
AcDbSymbolTable
0
LTYPE
5
14
100
AcDbSymbolTableRecord
100
AcDbLinetypeTableRecord
2
BYBLOCK
70
0
0
LTYPE
5
15
100
AcDbSymbolTableRecord
100
AcDbLinetypeTableRecord
2
BYLAYER
70
0
0
ENDTAB
0
TABLE
2
LAYER
5
2
100
AcDbSymbolTable
70
2
0
LAYER
5
50
100
AcDbSymbolTableRecord
100
AcDbLayerTableRecord
2
0
70
0
6
CONTINUOUS
0
ENDTAB
0
TABLE
2
STYLE
5
3
100
AcDbSymbolTable
70
1
0
STYLE
5
11
100
AcDbSymbolTableRecord
100
AcDbTextStyleTableRecord
2
STANDARD
70
0
0
ENDTAB
0
TABLE
2
VIEW
5
6
100
AcDbSymbolTable
70
0
0
ENDTAB
0
TABLE
2
UCS
5
7
100
AcDbSymbolTable
70
0
0
ENDTAB
0
TABLE
2
APPID
5
9
100
AcDbSymbolTable
70
2
0
APPID
5
12
100
AcDbSymbolTableRecord
100
AcDbRegAppTableRecord
2
ACAD
70
0
0
ENDTAB
0
TABLE
2
DIMSTYLE
5
A
100
AcDbSymbolTable
70
1
0
ENDTAB
0
TABLE
2
BLOCK_RECORD
5
1
100
AcDbSymbolTable
70
1
0
BLOCK_RECORD
5
1F
100
AcDbSymbolTableRecord
100
AcDbBlockTableRecord
2
*MODEL_SPACE
0
BLOCK_RECORD
5
1B
100
AcDbSymbolTableRecord
100
AcDbBlockTableRecord
2
*PAPER_SPACE
0
ENDTAB
0
ENDSEC
0
SECTION
2
BLOCKS
0
BLOCK
5
20
100
AcDbEntity
100
AcDbBlockBegin
2
*MODEL_SPACE
0
ENDBLK
5
21
100
AcDbEntity
100
AcDbBlockEnd
0
BLOCK
5
1C
100
AcDbEntity
100
AcDbBlockBegin
2
*PAPER_SPACE
0
ENDBLK
5
1D
100
AcDbEntity
100
AcDbBlockEnd
0
ENDSEC
0
SECTION
2
ENTITIES
0
ARC
5
100
100
AcDbEntity
8
0
100
AcDbCircle
10
-38
20
76.609035245797983
30
0
40
1.0000000000000089
210
0
220
-0
230
1
100
AcDbArc
50
32.861716119518455
51
180
0
LINE
5
101
100
AcDbEntity
8
0
100
AcDbLine
10
-39.000000000000014
20
76.609035245797998
30
0
11
-39
21
36.000000536441803
31
0
0
ARC
5
102
100
AcDbEntity
8
0
100
AcDbCircle
10
-39.000000290572643
20
33.000000268220909
30
0
40
3.0000002682209108
210
0
220
0
230
1
100
AcDbArc
50
-89.999994450471803
51
89.999994483356858
0
LINE
5
103
100
AcDbEntity
8
0
100
AcDbLine
10
-39
20
30.000000000000007
30
0
11
-45
21
30
31
0
0
ARC
5
104
100
AcDbEntity
8
0
100
AcDbCircle
10
-45.000000335276127
20
33.000000268220901
30
0
40
3.0000002682209201
210
0
220
-0
230
1
100
AcDbArc
50
89.999993596698232
51
270.00000634625752
0
LINE
5
105
100
AcDbEntity
8
0
100
AcDbLine
10
-45
20
36.000000536441803
30
0
11
-45
21
49
31
0
0
ARC
5
106
100
AcDbEntity
8
0
100
AcDbCircle
10
-46
20
49
30
0
40
0.99999999999999645
210
0
220
0
230
1
100
AcDbArc
50
0
51
90
0
LINE
5
107
100
AcDbEntity
8
0
100
AcDbLine
10
-46
20
50
30
0
11
-59
21
50
31
0
0
ARC
5
108
100
AcDbEntity
8
0
100
AcDbCircle
10
-59
20
49
30
0
40
0.99999999999999645
210
0
220
-0
230
1
100
AcDbArc
50
90
51
180
0
LINE
5
109
100
AcDbEntity
8
0
100
AcDbLine
10
-60
20
49
30
0
11
-60
21
36.000000536441803
31
0
0
ARC
5
110
100
AcDbEntity
8
0
100
AcDbCircle
10
-60.000000447034836
20
33.000000268220901
30
0
40
3.0000002682209348
210
0
220
0
230
1
100
AcDbArc
50
-89.999991462264305
51
89.999991462264305
0
LINE
5
111
100
AcDbEntity
8
0
100
AcDbLine
10
-60
20
30
30
0
11
-66
21
29.999999999999996
31
0
0
ARC
5
112
100
AcDbEntity
8
0
100
AcDbCircle
10
-66.000000491738319
20
33.000000268220901
30
0
40
3.0000002682209459
210
0
220
-0
230
1
100
AcDbArc
50
89.99999060849072
51
270.00000935266274
0
LINE
5
113
100
AcDbEntity
8
0
100
AcDbLine
10
-66
20
36.00000053644181
30
0
11
-66
21
45.763932022500207
31
0
0
ARC
5
114
100
AcDbEntity
8
0
100
AcDbCircle
10
-67
20
45.763932022500207
30
0
40
0.99999999999999645
210
0
220
0
230
1
100
AcDbArc
50
0
51
153.43494882292129
0
LINE
5
115
100
AcDbEntity
8
0
100
AcDbLine
10
-67.894427190999906
20
46.211145618000174
30
0
11
-80.745275152837621
21
20.509449694324729
31
0
0
ARC
5
116
100
AcDbEntity
8
0
100
AcDbCircle
10
-79.850847961837701
20
20.062236098824755
30
0
40
1.0000000000000107
210
0
220
0
230
1
100
AcDbArc
50
153.43494882292129
51
278.21321070173883
0
LINE
5
117
100
AcDbEntity
8
0
100
AcDbLine
10
-79.707990818980548
20
19.072492780213977
30
0
11
-8.0136860494262585
21
29.420674319730317
31
0
0
ARC
5
118
100
AcDbEntity
8
0
100
AcDbCircle
10
-8.1565431922833991
20
30.410417638341105
30
0
40
1
210
0
220
0
230
1
100
AcDbArc
50
-81.786789298261951
51
32.86171611951815
0
LINE
5
119
100
AcDbEntity
8
0
100
AcDbLine
10
-7.3165605770298514
20
30.953030950075906
30
0
11
-37.160017384746446
21
77.151648557532795
31
0
0
ENDSEC
0
SECTION
2
OBJECTS
0
DICTIONARY
5
C
100
AcDbDictionary
3
ACAD_GROUP
350
D
3
ACAD_MLINESTYLE
350
17
0
DICTIONARY
5
D
100
AcDbDictionary
0
DICTIONARY
5
1A
330
C
100
AcDbDictionary
0
DICTIONARY
5
17
100
AcDbDictionary
0
ENDSEC
0
EOF
